{
  "project_info": {
    "project_number": "922856274487",
    "project_id": "chatapptutorial-81ada",
    "storage_bucket": "chatapptutorial-81ada.appspot.com"
  },
  "client": [
    {
      "client_info": {
        "mobilesdk_app_id": "1:922856274487:android:26175d8e62122734ee5db2",
        "android_client_info": {
          "package_name": "com.example.demo"
        }
      },
      "oauth_client": [
        {
          "client_id": "922856274487-lspe9r4vv9fuj4qc2imtr08v4hj8ahq8.apps.googleusercontent.com",
          "client_type": 3
        }
      ],
      "api_key": [
        {
          "current_key": "AIzaSyBmePy6UOY_noz8miTIJQlxbTM7oDJjH2Y"
        }
      ],
      "services": {
        "appinvite_service": {
          "other_platform_oauth_client": [
            {
              "client_id": "922856274487-lspe9r4vv9fuj4qc2imtr08v4hj8ahq8.apps.googleusercontent.com",
              "client_type": 3
            }
          ]
        }
      }
    }
  ],
  "configuration_version": "1"
}